patch
{
include "materials/models/infected/common/l4d2/bp_body_include.vmt"
insert
{
$basetexture "models/infected/common/l4d2/cif_tanktop_jeans"
$skintintgradient 6
$colortintgradient 13
$sheetindex 3
}
}