patch
{
include "materials/models/infected/common/l4d2/bp_head_include.vmt"
insert
{
$burning 1
$burnstrength "0.43"
$basetexture "models/infected/common/l4d2/cif_head_longhair"
$skintintgradient 4
$colortintgradient 12
$sheetindex 2
}
}
