patch
{
include "materials/models/infected/common/l4d2/bp_head_include.vmt"
insert
{
$basetexture "models/infected/common/l4d2/cif_head_bangs"
$skintintgradient 6
$colortintgradient 13
$sheetindex 3
}
}