patch
{
include "materials/models/infected/common/l4d2/bp_body_include.vmt"
insert
{
$basetexture "models/infected/common/l4d2/bphm_dressShirt_jeans"
$skintintgradient 2
$colortintgradient 10
$sheetindex 1
}
}