patch
{
include "materials/models/infected/common/l4d2/bp_head_include.vmt"
insert
{
$basetexture "models/infected/common/l4d2/cim_head_shaggy"
$skintintgradient 5
$colortintgradient 8
$sheetindex 1
}
}