patch
{
include "materials/models/infected/common/l4d2/bp_head_include.vmt"
insert
{
$BLOODMASKRANGE "[0.2 1.1]"
$phongboost 2
$basetexture "models/infected/common/l4d2/cim_head_shaggy_rain"
$skintintgradient 6
$colortintgradient 13
$sheetindex 3
}
}