patch
{
include "materials/models/infected/common/l4d2/ci_body_include.vmt"
insert
{
$basetexture "models/infected/common/l4d2/cim_roadcrew"
$detail "models/infected/common/l4d2/detail/ci_detail_mud"
$phongboost 2
$GRADIENTTEXTURE "models/infected/common/l4d2/ci_gradient_palette_roadcrew"
$phongtint "[1 1 1]"
$phongfresnelranges "[1 1 1]"
$phongboost 1
$DEFAULTPHONGEXPONENT 15
$EYEGLOW 1
$EYEGLOWCOLOR "[2 2 2]"
$EYEGLOWFLASHLIGHTBOOST 10

$envmaptint "[1.0 1.0 1.0]"
}
}