patch
{
include "materials/models/infected/common/l4d2/ci_body_include.vmt"
insert
{
$basetexture "models/infected/common/l4d2/cim_fallen_survivor"
$GRADIENTTEXTURE "models/infected/common/l4d2/ci_gradient_palette_fallen_survivor"
$phongtint "[1 1 1]"
$phongfresnelranges "[1 1 1]"
$phongboost 1
$DEFAULTPHONGEXPONENT 15
$WOUNDED 1
$BURNING 1
$BLOODSPECBOOST "0.2"
}
}