patch
{
include "materials/models/infected/common/l4d2/ci_body_include.vmt"
insert
{
$basetexture "models/infected/common/l4d2/cim_dressShirt_jeans"
$GRADIENTTEXTURE "models/infected/common/l4d2/ci_gradient_palette_b"
$WOUNDED 1
$BURNING 1
}
}