patch
{
include "materials/models/infected/common/l4d2/ci_body_include.vmt"
insert
{
$basetexture "models/infected/common/l4d2/cim_polo_jeans"
$gradienttexture "models/infected/common/l4d2/ci_gradient_palette_d"
$BURNING 1
}
}