"Resource/UI/DropDownMission.res"
{
	"FlyoutMenuSettings"
	{
		"noblindnavigation"		"1"
	}

	"PnlBackground"
	{
		"ControlName"			"Panel"
		"fieldName"				"PnlBackground"
		"xpos"					"0"
		"ypos"					"0"
		"zpos"					"-1"
		"wide"					"156"
		"tall"					"245" [$X360]
		"tall"					"125" [$WIN32]
		"visible"				"1"
		"enabled"				"1"
		"paintbackground"		"1"
		"paintborder"			"1"
	}

	"BtnCampaign1"
	{
		"ControlName"			"L4D360HybridButton"
		"fieldName"				"BtnCampaign1"
		"xpos"					"0"
		"ypos"					"0"
		"wide"					"150"
		"tall"					"20"
		"autoResize"			"1"
		"pinCorner"				"0"
		"visible"				"1"
		"enabled"				"1"
		"tabPosition"			"0"
		"wrap"					"1"
		"navUp"					"BtnCampaign6"
		"navDown"				"BtnCampaign2"
		"labelText"				"#L4D360UI_CampaignName_C8"
		"tooltiptext"			""
		"disabled_tooltiptext"	""
		"style"					"FlyoutMenuButton"
		"command"				"cmd_campaign_L4D2C8"
	}	

	"BtnCampaign2"
	{
		"ControlName"			"L4D360HybridButton"
		"fieldName"				"BtnCampaign2"
		"xpos"					"0"
		"ypos"					"20"
		"wide"					"150"
		"tall"					"20"
		"autoResize"			"1"
		"pinCorner"				"0"
		"visible"				"1"
		"enabled"				"1"
		"tabPosition"			"0"
		"wrap"					"1"
		"navUp"					"BtnCampaign1"
		"navDown"				"BtnCampaign3"
		"labelText"				"#L4D360UI_CampaignName_C9"
		"tooltiptext"			""
		"disabled_tooltiptext"	""
		"style"					"FlyoutMenuButton"
		"command"				"cmd_campaign_L4D2C9"
	}	

	"BtnCampaign3"
	{
		"ControlName"			"L4D360HybridButton"
		"fieldName"				"BtnCampaign3"
		"xpos"					"0"
		"ypos"					"40"
		"wide"					"150"
		"tall"					"20"
		"autoResize"			"1"
		"pinCorner"				"0"
		"visible"				"1"
		"enabled"				"1"
		"tabPosition"			"0"
		"wrap"					"1"
		"navUp"					"BtnCampaign2"
		"navDown"				"BtnCampaign4"
		"labelText"				"#L4D360UI_CampaignName_C10"
		"tooltiptext"			""
		"disabled_tooltiptext"	""
		"style"					"FlyoutMenuButton"
		"command"				"cmd_campaign_L4D2C10"
	}	

	"BtnCampaign4"
	{
		"ControlName"			"L4D360HybridButton"
		"fieldName"				"BtnCampaign4"
		"xpos"					"0"
		"ypos"					"60"
		"wide"					"150"
		"tall"					"20"
		"autoResize"			"1"
		"pinCorner"				"0"
		"visible"				"1"
		"enabled"				"1"
		"tabPosition"			"0"
		"wrap"					"1"
		"navUp"					"BtnCampaign3"
		"navDown"				"BtnCampaign5"
		"labelText"				"#L4D360UI_CampaignName_C11"
		"tooltiptext"			""
		"disabled_tooltiptext"	""
		"style"					"FlyoutMenuButton"
		"command"				"cmd_campaign_L4D2C11"
	}	

	"BtnCampaign5"
	{
		"ControlName"			"L4D360HybridButton"
		"fieldName"				"BtnCampaign5"
		"xpos"					"0"
		"ypos"					"80"
		"wide"					"150"
		"tall"					"20"
		"autoResize"			"1"
		"pinCorner"				"0"
		"visible"				"1"
		"enabled"				"1"
		"tabPosition"			"0"
		"wrap"					"1"
		"navUp"					"BtnCampaign4"
		"navDown"				"BtnCampaignCustom"
		"labelText"				"#L4D360UI_CampaignName_C12"
		"tooltiptext"			""
		"disabled_tooltiptext"	""
		"style"					"FlyoutMenuButton"
		"command"				"cmd_campaign_L4D2C12"
	}	

	"BtnCampaign6"
	{
		"ControlName"			"L4D360HybridButton"
		"fieldName"				"BtnCampaign6"
		"xpos"					"0"
		"ypos"					"100"
		"wide"					"150"
		"tall"					"20"
		"autoResize"			"1"
		"pinCorner"				"0"
		"visible"				"1"
		"enabled"				"1"
		"tabPosition"			"0"
		"wrap"					"1"
		"navUp"					"BtnCampaign5"
		"navDown"				"BtnCampaign1"
		"labelText"				"#L4D360UI_Campaign_L4D2C7"
		"tooltiptext"			""
		"disabled_tooltiptext"	""
		"style"					"FlyoutMenuButton"
		"command"				"cmd_campaign_L4D2C7"
	}	
}