VertexLitGeneric
{
$baseTexture "models\v_models\Weapons\shotgun/V_shotgun_wood"
$phong 1
$phongboost 45

$phongfresnelranges "[.2 .4 1]"
$phongexponenttexture "models\v_models\Weapons\shotgun/V_shotgun_wood_exp"
$basemapalphaphongmask 1
$envmap env_cubemap
$envmapfresnel 1
$envmapFresnelMinMaxExp "[.1 .6 .4]"
$halflambert 0
$phongalbedotint 1
}
