vertexlitgeneric
{
$baseTexture "models\survivors\mechanic\mechanic_body_color"
$bumpmap "models\survivors\mechanic\mechanic_body_normal"
$phong 1
$phongboost "2.5"
$phongexponent 5
$phongtint "[.85 .85 1]"
$halflambert 0
$phongfresnelranges "[.3 .65 30]"
$ambientocclusion 1



$diffuseexp "1.5"
}
