VertexLitGeneric
{
$baseTexture "models\v_models\Weapons\pistol/v_4pistols"


$phong 1
$phongboost 100

$phongfresnelranges "[.1 .4 2]"
$nocompress 1
$phongexponenttexture "models\v_models\Weapons\pistol/V_4pistols_exp"
$basemapalphaphongmask 1
$phongalbedotint 1
$envmap env_cubemap
$envmapfresnel 1
$envmapFresnelMinMaxExp "[10 40 .4]"


}
