patch
{
include "materials/models/infected/common/l4d2/ci_body_include.vmt"
insert
{
$basetexture "models/infected/common/cim_formal"
$GRADIENTTEXTURE "models/infected/common/ci_gradient_palette_formal"
$WOUNDED 1
}
}