patch
{
include "materials/models/infected/common/l4d2/ci_head_include.vmt"
insert
{
$basetexture "models/infected/common/cim_head_biker_longhair"
$GRADIENTTEXTURE "models/infected/common/ci_gradient_palette_bikers"
$DETAIL "models/infected/common/cim_head_tats"
$DETAILSCALE 1
}
}