vertexlitgeneric
{
$baseTexture "models\survivors\gambler\gambler_body"
$bumpmap "models\survivors\gambler\gambler_body_normal"
$phong 1
$phongboost 2
$phongexponent 2
$phongtint "[1 1 1]"
$halflambert 0
$phongfresnelranges "[.4 .8 30]"
$ambientocclusion 1



$diffuseexp "1.5"
}
