patch
{

include "materials/models/survivors/survivors_it_shared.vmt"
insert
{

$baseTexture "models\survivors\gambler\gambler_head_color"



$bumpmap "models\survivors\gambler\gambler_head_normal"
$phong 1
$phongboost "1.4"
$phongexponent 10
$phongtint "[.85 .85 1]"
$phongfresnelranges "[.2 .5 5]"

$ambientocclusion 1
$halflambert 0
$diffuseexp "1.5"
$lightwarptexture "models\survivors\gambler\gambler_head_wrp"
}
}
