vertexlitgeneric
{

$baseTexture "models\survivors\namvet\bill_color"
$bumpmap "models\survivors\namvet/bill_normal"
$halflambert 1
$phong 1
$phongboost "1.5"
$phongexponent 9
$phongtint "[.85 .85 1]"
$phongfresnelranges "[.3 4 30]"
$ambientocclusion 1
}
