"Resource/HudLayout.res"
{
	HudHealth
	{
		"fieldName"		"HudHealth"
		"xpos"	"16"
		"ypos"	"432"
		"wide"	"102"
		"tall"  "36"
		"visible" "1"
		"enabled" "1"

		"PaintBackgroundType"	"2"
		
		"text_xpos" "8"
		"text_ypos" "20"
		"digit_xpos" "50"
		"digit_ypos" "2"
	}

	TargetID
	{
		"fieldName" "TargetID"
		"visible" "1"
		"enabled" "1"
		"wide"	 "640"
		"tall"	 "480"
	}

	TeamDisplay
	{
		"fieldName" "TeamDisplay"
	    "visible" "0"
	    "enabled" "1"
		"xpos"	"16"
		"ypos"	"415"
	    "wide" "200"
	    "tall" "60"
	    "text_xpos" "8"
	    "text_ypos" "4"
	}
	
	HudVoiceSelfStatus
	{
		"fieldName" "HudVoiceSelfStatus"
		"visible" "1"
		"enabled" "1"
		"xpos" "r43"
		"ypos" "355"
		"wide" "24"
		"tall" "24"
	}

	HudVoiceStatus
	{
		"fieldName" "HudVoiceStatus"
		"visible" "1"
		"enabled" "1"
		"xpos" "r145"
		"ypos" "0"
		"wide" "145"
		"tall" "400"

		"item_wide"	"135"
		
		"show_avatar"		"0"
		
		"show_dead_icon"	"1"
		"dead_xpos"			"1"
		"dead_ypos"			"0"
		"dead_wide"			"16"
		"dead_tall"			"16"
		
		"show_voice_icon"	"1"
		"icon_ypos"			"0"
		"icon_xpos"			"15"
		"icon_tall"			"16"
		"icon_wide"			"16"
		
		"text_xpos"			"33"
	}
	
	HudSuit
	{
		"fieldName"		"HudSuit"
		"xpos"	"140"
		"ypos"	"432"
		"wide"	"108"
		"tall"  "36"
		"visible" "1"
		"enabled" "1"

		"PaintBackgroundType"	"2"

		
		"text_xpos" "8"
		"text_ypos" "20"
		"digit_xpos" "50"
		"digit_ypos" "2"
	}

	HudAmmo
	{
		"fieldName" "HudAmmo"
		"xpos"	"r150"
		"ypos"	"332"
		"wide"	"136"
		"tall"  "36"
		"visible" "1"
		"enabled" "1"

		"PaintBackgroundType"	"2"

		"text_xpos" "8"
		"text_ypos" "20"
		"digit_xpos" "44"
		"digit_ypos" "2"
		"digit2_xpos" "98"
		"digit2_ypos" "16"
	}

	HudAmmoSecondary
	{
		"fieldName" "HudAmmoSecondary"
		"visible" "0"
		"enabled" "1"
	}
	
	HudSuitPower
	{
		"fieldName" "HudSuitPower"
		"visible" "1"
		"enabled" "1"
		"xpos"	"16"
		"ypos"	"396"
		"wide"	"102"
		"tall"	"26"
		
		"AuxPowerLowColor" "255 0 0 220"
		"AuxPowerHighColor" "255 220 0 220"
		"AuxPowerDisabledAlpha" "70"

		"BarInsetX" "8"
		"BarInsetY" "15"
		"BarWidth" "92"
		"BarHeight" "4"
		"BarChunkWidth" "6"
		"BarChunkGap" "3"

		"text_xpos" "8"
		"text_ypos" "4"
		"text2_xpos" "8"
		"text2_ypos" "22"
		"text2_gap" "10"

		"PaintBackgroundType"	"2"
	}
	
	HudFlashlight
	{
		"fieldName" "HudFlashlight"
		"visible" "0"
		"enabled" "1"
		"xpos"	"16"
		"ypos"	"370"
		"wide"	"102"
		"tall"	"20"
		
		"text_xpos" "8"
		"text_ypos" "6"
		"TextColor"	"255 170 0 220"

		"PaintBackgroundType"	"2"
	}
	
	HudDamageIndicator
	{
		"fieldName" "HudDamageIndicator"
		"visible" "1"
		"enabled" "1"
		"DmgColorLeft" "255 0 0 0"
		"DmgColorRight" "255 0 0 0"
		
		"dmg_xpos" "30"
		"dmg_ypos" "100"
		"dmg_wide" "36"
		"dmg_tall1" "240"
		"dmg_tall2" "200"
	}

	HudZoom
	{
		"fieldName" "HudZoom"
		"visible" "1"
		"enabled" "1"
		"Circle1Radius" "66"
		"Circle2Radius"	"74"
		"DashGap"	"16"
		"DashHeight" "4"
		"BorderThickness" "88"
	}

	HudWeaponSelection
	{
		"fieldName" "HudWeaponSelection"
		"ypos" 	"16"
		"visible" "1"
		"enabled" "1"
		"SmallBoxSize" "32"
		"LargeBoxWide" "112"
		"LargeBoxTall" "80"
		"BoxGap" "8"
		"SelectionNumberXPos" "4"
		"SelectionNumberYPos" "4"
		"SelectionGrowTime"	"0.4"
		"TextYPos" "64"
	}

	HudCrosshair
	{
		"fieldName" "HudCrosshair"
		"visible" "1"
		"enabled" "1"
		"wide"	 "640"
		"tall"	 "480"
	}

	HudDeathNotice
	{
		"fieldName" "HudDeathNotice"
		"visible" "1"
		"enabled" "1"
		"xpos"	 "r640"
		"ypos"	 "12"
		"wide"	 "628"
		"tall"	 "468"

		"MaxDeathNotices" "4"
		"LineHeight"	  "22"
		"RightJustify"	  "1"	// If 1, draw notices from the right

		"TextFont"				"Default"
	}

	HudVehicle
	{
		"fieldName" "HudVehicle"
		"visible" "1"
		"enabled" "1"
		"wide"	 "640"
		"tall"	 "480"
	}

	ScorePanel
	{
		"fieldName" "ScorePanel"
		"visible" "1"
		"enabled" "1"
		"wide"	 "640"
		"tall"	 "480"
	}

	HudTrain
	{
		"fieldName" "HudTrain"
		"visible" "1"
		"enabled" "1"
		"wide"	 "640"
		"tall"	 "480"
	}

	HudMOTD
	{
		"fieldName" "HudMOTD"
		"visible" "1"
		"enabled" "1"
		"wide"	 "640"
		"tall"	 "480"
	}

	HudMessage
	{
		"fieldName" "HudMessage"
		"visible" "1"
		"enabled" "1"
		"wide"	 "f0"
		"tall"	 "480"
	}

	HudMenu
	{
		"fieldName" "HudMenu"
		"visible" "1"
		"enabled" "1"
		"wide"	 "640"
		"tall"	 "480"
	}

	HudCloseCaption
	{
		"fieldName" "HudCloseCaption"
		"visible"	"1"
		"enabled"	"1"
		"xpos"		"c-250"
		"ypos"		"276"
		"wide"		"500"
		"tall"		"136"

		"BgAlpha"	"128"

		"GrowTime"		"0.25"
		"ItemHiddenTime"	"0.2"  // Nearly same as grow time so that the item doesn't start to show until growth is finished
		"ItemFadeInTime"	"0.15"	// Once ItemHiddenTime is finished, takes this much longer to fade in
		"ItemFadeOutTime"	"0.3"

	}

	HudHistoryResource
	{
		"fieldName" "HudHistoryResource"
		"visible" "1"
		"enabled" "1"
		"xpos"	"r252"
		"ypos"	"40"
		"wide"	 "248"
		"tall"	 "320"

		"history_gap"	"56"
		"icon_inset"	"28"
		"text_inset"	"26"
		"NumberFont"	"HudNumbersSmall"
	}

	HudGeiger
	{
		"fieldName" "HudGeiger"
		"visible" "1"
		"enabled" "1"
		"wide"	 "640"
		"tall"	 "480"
	}

	HUDQuickInfo
	{
		"fieldName" "HUDQuickInfo"
		"visible" "1"
		"enabled" "1"
		"wide"	 "640"
		"tall"	 "480"
	}

	HudWeapon
	{
		"fieldName" "HudWeapon"
		"visible" "1"
		"enabled" "1"
		"wide"	 "640"
		"tall"	 "480"
	}
	HudAnimationInfo
	{
		"fieldName" "HudAnimationInfo"
		"visible" "1"
		"enabled" "1"
		"wide"	 "640"
		"tall"	 "480"
	}

	HudPredictionDump
	{
		"fieldName" "HudPredictionDump"
		"visible" "1"
		"enabled" "1"
		"wide"	 "640"
		"tall"	 "480"
	}

	HudHintDisplay
	{
		"fieldName"	"HudHintDisplay"
		"visible"	"0"
		"enabled" "1"
		"xpos"	"r120"
		"ypos"	"r340"
		"wide"	"100"
		"tall"	"200"
		"text_xpos"	"8"
		"text_ypos"	"8"
		"text_xgap"	"8"
		"text_ygap"	"8"
		"TextColor"	"255 170 0 220"

		"PaintBackgroundType"	"2"
	}

	HudSquadStatus
	{
		"fieldName"	"HudSquadStatus"
		"visible"	"1"
		"enabled" "1"
		"xpos"	"r120"
		"ypos"	"380"
		"wide"	"104"
		"tall"	"46"
		"text_xpos"	"8"
		"text_ypos"	"34"
		"SquadIconColor"	"255 220 0 160"
		"IconInsetX"	"8"
		"IconInsetY"	"0"
		"IconGap"		"24"

		"PaintBackgroundType"	"2"
	}

	HudPoisonDamageIndicator
	{
		"fieldName"	"HudPoisonDamageIndicator"
		"visible"	"0"
		"enabled" "1"
		"xpos"	"16"
		"ypos"	"346"
		"wide"	"136"
		"tall"	"38"
		"text_xpos"	"8"
		"text_ypos"	"8"
		"text_ygap" "14"
		"TextColor"	"255 170 0 220"
		"PaintBackgroundType"	"2"
	}
	HudCredits
	{
		"fieldName"	"HudCredits"
		"TextFont"	"Default"
		"visible"	"1"
		"xpos"	"0"
		"ypos"	"0"
		"wide"	"640"
		"tall"	"480"
		"TextColor"	"255 255 255 192"

	}
	"HudChat"
	{
		"ControlName"		"EditablePanel"
		"fieldName" 		"HudChat"
		"visible" 		"1"
		"enabled" 		"1"
		"xpos"			"10"
		"ypos"			"275"
		"wide"	 		"320"
		"tall"	 		"120"
		"PaintBackgroundType"	"2"
	}
	
	AchievementNotificationPanel	
	{
		"fieldName"	"AchievementNotificationPanel"
		"visible"	"0"
		"enabled"	"0"
	}
	
	HudHintKeyDisplay
	{
		"fieldName"	"HudHintKeyDisplay"
		"visible"	"0"
		"enabled" 	"0"
	}
	
	HUDAutoAim
	{
		"fieldName"	"HUDAutoAim"
		"visible"	"0"
		"enabled"	"0"
	}	
	
	HudHDRDemo
	{
		"fieldName"	"HudHDRDemo"
		"visible"	"0"
		"enabled"	"0"
	}
	
	HudCommentary
	{
		"fieldName"	"HudCommentary"
		"visible"	"0"
		"enabled"	"0"
	}
	
	"CHudVote"
	{
		"fieldName"		"CHudVote"
		"visible"		"0"
		"enabled"		"0"
	}
	
		ASWHudMinimap
	{
		"fieldName"		"ASWHudMinimap"
		"visible" "0"
		"enabled" "1"
	}
	
	ASWHudHealth
	{
		"fieldName"		"ASWHudHealth"
		"visible" "0"
		"enabled" "1"
	}
	
	ASWHud3DMarineNames
	{
		"fieldName"		"ASWHud3DMarineNames"
		"visible" "0"
		"enabled" "1"
	}
	
	ASWHudEmotes
	{
		"fieldName"		"ASWHudEmotes"
		"visible" "0"
		"enabled" "1"
	}
	
	ASWHudUseArea
	{
		"fieldName"		"ASWHudUseArea"
		"visible" "0"
		"enabled" "1"
	}
	
	ASWHudOverlayMessages
	{
		"fieldName"		"ASWHudOverlayMessages"
		"visible" "0"
		"enabled" "1"
	}
	
	ASWHudCrosshair
	{
		"fieldName" "ASWHudCrosshair"
		"visible" "0"
		"enabled" "1"	
	}
	
	RadialMenu
	{
		"fieldName" "RadialMenu"
		"visible" "0"
		"enabled" "1"
	}
	
	ASWHudStylinCam
	{
		"fieldName" "ASWHudStylinCam"
		"visible" "0"
		"enabled" "1"
	}
	
	ASWHudObjective
	{
		"fieldName" "ASWHudObjective"
		"visible" "0"
		"enabled" "1"	
	}
	
	HudMenu
	{
		"fieldName" "HudMenu"
		"visible" "0"
		"enabled" "1"
	}

	ASWHudVoiceStatus
	{
		"fieldName" "ASWHudVoiceStatus"
		"visible" "0"
		"enabled" "1"
	}
	
	ASWHudMoney
	{
		"fieldName"		"ASWHudMoney"
		"visible" "0"
		"enabled" "1"
	}
	
	ASW_Hud_Holdout
	{
		"fieldName" "ASW_Hud_Holdout"
		"visible" "0"
		"enabled" "1"
	}
	
	ASW_Hud_Master
	{
		"fieldName" "ASW_Hud_Master"
		"visible" "0"
		"enabled" "1"
	}
	CHudLocalPlayerDisplay
	{
		"fieldName" "CHudLocalPlayerDisplay"
		"visible" "1"
		"enabled" "1"
		
		"usetitlesafe"	"1"

		"xpos"		"r160"
		"ypos"		"r91"
		"wide"		"160"
		"tall"		"320"
	}
}