UnlitGeneric
{
$translucent 1
$baseTexture "vgui\common\message_dialog_warning"
$detail "vgui\common\message_dialog_mask"
$detailscale 1
$detailblendmode 8
$distancealphafromdetail 1

$softedges 1
$edgesoftnessstart 0.5
$edgesoftnessend 0.4
$scaleedgesoftnessbasedonscreenres 1

$outline 1
$outlinecolor "[0.9 0.9 0.5]"
$outlinestart0 0.4
$outlinestart1 0.55
$outlineend0 0.55
$outlineend1 0.7
$scaleoutlinesoftnessbasedonscreenres 1

$glow 1
$glowcolor "[0 0 0]"
$glowalpha 0.5
$glowstart 0
$glowend 0.5
$glowx -0.01
$glowy -0.01

$distancealpha 1
$no_fullbright 1
$ignorez 1
"%keywords" tf
}
